…
# Join the own_goals data frame to the team_records data frame, based on the team name
team_records_with_ogs <- inner_join(team_records, own_goals, by = "home_team")

# Print the resulting data frame
team_records_with_ogs
```

```
## # A tibble: 163 × 7
##    home_team    wins losses draws total_points avg_points count
##    <chr>       <int>  <int> <int>        <dbl>      <dbl> <int>
##  1 Brazil        427     58   110         1391       2.34    15
##  2 Argentina     380     69   125         1265       2.20    19
##  3 Mexico        326    104   125         1103       1.99    13
##  4 England       326     84   115         1093       2.08    14
##  5 Germany       327     87   112         1093       2.08    19
##  6 South Korea   297     84   118         1009       2.02     6
##  7 Italy         291     52   123          996       2.14    11
##  8 Sweden        296    104   106          994       1.96     4
##  9 France        294    109   102          984       1.95    14
## 10 Hungary       266    104   105          903       1.90     7
## # … with 153 more rows
```
…
